{
  "version": "0.30.56",
  "npmClient": "yarn",
  "useWorkspaces": true,
  "packages": [
    "docs",
    "packages/*",
    "rust/*"
  ],
  "command": {
    "bootstrap": {
      "npmClient": "yarn",
      "npmClientArgs": [
        "--frozen-lockfile"
      ]
    }
  }
}
